<?xml version="1.0" encoding="UTF-8" standalone="no"?>
<svg
   xmlns:dc="http://purl.org/dc/elements/1.1/"
   xmlns:cc="http://creativecommons.org/ns#"
   xmlns:rdf="http://www.w3.org/1999/02/22-rdf-syntax-ns#"
   xmlns:svg="http://www.w3.org/2000/svg"
   xmlns="http://www.w3.org/2000/svg"
   xmlns:sodipodi="http://sodipodi.sourceforge.net/DTD/sodipodi-0.dtd"
   xmlns:inkscape="http://www.inkscape.org/namespaces/inkscape"
   style="font-style:normal;font-weight:normal;font-size:12px;font-family:Dialog;color-interpolation:auto;fill:#000000;fill-opacity:1;stroke:#000000;stroke-width:1;stroke-linecap:square;stroke-linejoin:miter;stroke-miterlimit:10;stroke-dasharray:none;stroke-dashoffset:0;stroke-opacity:1;color-rendering:auto;image-rendering:auto;shape-rendering:auto;text-rendering:auto"
   width="313.6944"
   height="239.14862"
   id="svg2"
   version="1.1"
   inkscape:version="0.91 r13725"
   sodipodi:docname="hidenets-user-variant1.svg">
  <metadata
     id="metadata107">
    <rdf:RDF>
      <cc:Work
         rdf:about="">
        <dc:format>image/svg+xml</dc:format>
        <dc:type
           rdf:resource="http://purl.org/dc/dcmitype/StillImage" />
        <dc:title></dc:title>
      </cc:Work>
    </rdf:RDF>
  </metadata>
  <sodipodi:namedview
     pagecolor="#ffffff"
     bordercolor="#666666"
     borderopacity="1"
     objecttolerance="10"
     gridtolerance="10"
     guidetolerance="10"
     inkscape:pageopacity="0"
     inkscape:pageshadow="2"
     inkscape:window-width="1920"
     inkscape:window-height="1009"
     id="namedview105"
     showgrid="false"
     inkscape:zoom="1.3567252"
     inkscape:cx="-100.86371"
     inkscape:cy="41.29759"
     inkscape:window-x="0"
     inkscape:window-y="34"
     inkscape:window-maximized="1"
     inkscape:current-layer="svg2"
     fit-margin-top="0"
     fit-margin-left="0"
     fit-margin-right="0"
     fit-margin-bottom="0" />
  <!--Generated by the Batik Graphics2D SVG Generator-->
  <defs
     id="genericDefs" />
  <g
     id="g11"
     style="font-size:14px;font-family:sans-serif"
     transform="translate(-217.37402,-253.76349)">
    <text
       id="text13"
       style="stroke:none"
       y="346"
       x="216"
       xml:space="preserve">Idle</text>
    <text
       id="text15"
       style="stroke:none"
       y="490"
       x="430"
       xml:space="preserve">Dropped</text>
    <text
       id="text17"
       style="stroke:none"
       y="434"
       x="464"
       xml:space="preserve">Failed</text>
    <text
       id="text19"
       style="stroke:none"
       y="297"
       x="487"
       xml:space="preserve">Req1</text>
    <text
       id="text21"
       style="stroke:none"
       y="346"
       x="264"
       xml:space="preserve">IGRequest</text>
    <text
       id="text23"
       style="stroke:none"
       y="357"
       x="343"
       xml:space="preserve">Request</text>
    <text
       id="text25"
       style="stroke:none"
       y="423"
       x="345"
       xml:space="preserve">Fail</text>
    <text
       id="text27"
       style="stroke:none"
       y="471"
       x="323"
       xml:space="preserve">Drop</text>
    <text
       id="text29"
       style="stroke:none"
       y="337"
       x="487"
       xml:space="preserve">Req6</text>
    <text
       id="text31"
       style="stroke:none"
       y="377"
       x="487"
       xml:space="preserve">Req7</text>
    <line
       id="line33"
       y2="353"
       style="fill:none"
       y1="336"
       x2="485"
       x1="372" />
    <polygon
       id="polygon35"
       points="495,354 486,349 485,356 495,354 "
       style="stroke:none" />
    <line
       id="line37"
       y2="353"
       style="fill:none"
       y1="354"
       x2="485"
       x1="495" />
    <line
       id="line39"
       y2="315"
       style="fill:none"
       y1="324"
       x2="486"
       x1="372" />
    <polygon
       id="polygon41"
       points="495,315 486,312 486,319 495,315 "
       style="stroke:none" />
    <line
       id="line43"
       y2="315"
       style="fill:none"
       y1="315"
       x2="486"
       x1="495" />
    <line
       id="line45"
       y2="279"
       style="fill:none"
       y1="312"
       x2="485"
       x1="372" />
    <polygon
       id="polygon47"
       points="495,277 485,276 487,283 495,277 "
       style="stroke:none" />
    <line
       id="line49"
       y2="279"
       style="fill:none"
       y1="277"
       x2="485"
       x1="495" />
    <line
       id="line51"
       y2="324"
       style="fill:none"
       y1="324"
       x2="369"
       x1="300" />
    <line
       id="line53"
       y2="334"
       style="fill:none"
       y1="396"
       x2="248"
       x1="356" />
    <polygon
       id="polygon55"
       points="238,329 244,337 248,330 238,329 "
       style="stroke:none" />
    <line
       id="line57"
       y2="334"
       style="fill:none"
       y1="329"
       x2="248"
       x1="238" />
    <line
       id="line59"
       y2="343"
       style="fill:none"
       y1="444"
       x2="246"
       x1="340" />
    <polygon
       id="polygon61"
       points="238,334 242,343 247,338 238,334 "
       style="stroke:none" />
    <line
       id="line63"
       y2="343"
       style="fill:none"
       y1="334"
       x2="246"
       x1="238" />
    <line
       id="line65"
       y2="324"
       style="fill:none"
       y1="324"
       x2="300"
       x1="228" />
    <line
       id="line67"
       y2="397"
       style="fill:none"
       y1="412"
       x2="369"
       x1="484" />
    <polygon
       id="polygon69"
       points="359,396 368,401 369,393 359,396 "
       style="stroke:none" />
    <line
       id="line71"
       y2="397"
       style="fill:none"
       y1="396"
       x2="369"
       x1="359" />
    <line
       id="line73"
       y2="446"
       style="fill:none"
       y1="468"
       x2="353"
       x1="460" />
    <polygon
       id="polygon75"
       points="343,444 351,450 353,442 343,444 "
       style="stroke:none" />
    <line
       id="line77"
       y2="446"
       style="fill:none"
       y1="444"
       x2="353"
       x1="343" />
    <circle
       id="circle79"
       cy="323.5"
       cx="227.5"
       r="9.5"
       style="fill:#0000ff;stroke:none" />
    <circle
       id="circle81"
       cy="467.5"
       cx="459.5"
       r="9.5"
       style="fill:#0000ff;stroke:none" />
    <circle
       id="circle83"
       cy="411.5"
       cx="483.5"
       r="9.5"
       style="fill:#0000ff;stroke:none" />
    <circle
       id="circle85"
       cy="274.5"
       cx="504.5"
       r="9.5"
       style="fill:#0000ff;stroke:none" />
    <polygon
       id="polygon87"
       points="310,334 290,324 310,314 "
       style="fill:#ff0000;stroke:none" />
    <rect
       id="rect89"
       height="42"
       ry="3"
       rx="3"
       style="fill:#0000ff;stroke:none"
       width="6"
       y="303"
       x="366" />
    <circle
       id="circle91"
       cy="312"
       cx="375"
       r="3"
       style="fill:#0000ff;stroke:none" />
    <circle
       id="circle93"
       cy="324"
       cx="375"
       r="3"
       style="fill:#0000ff;stroke:none" />
    <circle
       id="circle95"
       cy="336"
       cx="375"
       r="3"
       style="fill:#0000ff;stroke:none" />
    <rect
       id="rect97"
       height="30"
       ry="3"
       rx="3"
       style="fill:#0000ff;stroke:none"
       width="6"
       y="381"
       x="353" />
    <rect
       id="rect99"
       height="30"
       ry="3"
       rx="3"
       style="fill:#0000ff;stroke:none"
       width="6"
       y="429"
       x="337" />
    <circle
       id="circle101"
       cy="314.5"
       cx="504.5"
       r="9.5"
       style="fill:#0000ff;stroke:none" />
    <circle
       id="circle103"
       cy="354.5"
       cx="504.5"
       r="9.5"
       style="fill:#0000ff;stroke:none" />
  </g>
  <text
     id="text23-3"
     style="font-style:normal;font-weight:normal;font-size:14px;font-family:sans-serif;color-interpolation:auto;fill:#000000;fill-opacity:1;stroke:none;stroke-width:1;stroke-linecap:square;stroke-linejoin:miter;stroke-miterlimit:10;stroke-dasharray:none;stroke-dashoffset:0;stroke-opacity:1;color-rendering:auto;image-rendering:auto;shape-rendering:auto;text-rendering:auto"
     y="50.644512"
     x="157.87807"
     xml:space="preserve"><tspan
       style="font-size:10px"
       id="tspan4197">0.7</tspan></text>
  <text
     id="text23-3-6"
     style="font-style:normal;font-weight:normal;font-size:14px;font-family:sans-serif;color-interpolation:auto;fill:#000000;fill-opacity:1;stroke:none;stroke-width:1;stroke-linecap:square;stroke-linejoin:miter;stroke-miterlimit:10;stroke-dasharray:none;stroke-dashoffset:0;stroke-opacity:1;color-rendering:auto;image-rendering:auto;shape-rendering:auto;text-rendering:auto"
     y="66.666199"
     x="162.97023"
     xml:space="preserve"><tspan
       style="font-size:10px"
       id="tspan4197-7">0.2</tspan></text>
  <text
     id="text23-3-5"
     style="font-style:normal;font-weight:normal;font-size:14px;font-family:sans-serif;color-interpolation:auto;fill:#000000;fill-opacity:1;stroke:none;stroke-width:1;stroke-linecap:square;stroke-linejoin:miter;stroke-miterlimit:10;stroke-dasharray:none;stroke-dashoffset:0;stroke-opacity:1;color-rendering:auto;image-rendering:auto;shape-rendering:auto;text-rendering:auto"
     y="81.520012"
     x="163.49142"
     xml:space="preserve"><tspan
       style="font-size:10px"
       id="tspan4197-3">0.1</tspan></text>
  <rect
     style="font-style:normal;font-weight:normal;font-size:12px;font-family:Dialog;opacity:1;color-interpolation:auto;fill:none;fill-opacity:1;fill-rule:nonzero;stroke:#ff0000;stroke-width:1;stroke-linecap:round;stroke-linejoin:miter;stroke-miterlimit:4;stroke-dasharray:none;stroke-dashoffset:0;stroke-opacity:1;color-rendering:auto;image-rendering:auto;shape-rendering:auto;text-rendering:auto"
     id="rect4224"
     width="65.464661"
     height="71.812721"
     x="122.88136"
     y="38.021004"
     rx="4.1161165"
     ry="3.7780874" />
  <rect
     style="font-style:normal;font-weight:normal;font-size:12px;font-family:Dialog;opacity:1;color-interpolation:auto;fill:none;fill-opacity:1;fill-rule:nonzero;stroke:#ff0000;stroke-width:0.99999994;stroke-linecap:round;stroke-linejoin:miter;stroke-miterlimit:4;stroke-dasharray:none;stroke-dashoffset:0;stroke-opacity:1;color-rendering:auto;image-rendering:auto;shape-rendering:auto;text-rendering:auto"
     id="rect4224-7"
     width="52.212097"
     height="131.74481"
     x="260.9823"
     y="0.49999997"
     rx="4.1161165"
     ry="3.7780874" />
  <rect
     style="font-style:normal;font-weight:normal;font-size:12px;font-family:Dialog;opacity:1;color-interpolation:auto;fill:none;fill-opacity:1;fill-rule:nonzero;stroke:#ff0000;stroke-width:0.99999994;stroke-linecap:round;stroke-linejoin:miter;stroke-miterlimit:4;stroke-dasharray:none;stroke-dashoffset:0;stroke-opacity:1;color-rendering:auto;image-rendering:auto;shape-rendering:auto;text-rendering:auto"
     id="rect4224-7-5"
     width="28.344864"
     height="81.736481"
     x="205.84265"
     y="23.84576"
     rx="4.1161165"
     ry="3.7780874" />
</svg>
